/* XPM */
static char * close_pressed_xpm[] = {
"20 20 3 1",
" 	c None",
".	c #1F1F22",
"+	c #424D74",
"....................",
"....................",
"....................",
"....................",
"....................",
".....+........+.....",
"......+......+......",
".......+....+.......",
"........+..+........",
".........++.........",
".........++.........",
"........+..+........",
".......+....+.......",
"......+......+......",
".....+........+.....",
"....................",
"....................",
"....................",
"....................",
"...................."};
