/* XPM */
static char * iconify_pressed_xpm[] = {
"20 20 3 1",
" 	c None",
".	c #1F1F22",
"+	c #7F7F7F",
"....................",
"....................",
"....................",
"....................",
"....................",
"....................",
"....................",
"....................",
"....................",
"....................",
".....++++++++++.....",
"....................",
"....................",
"....................",
"....................",
"....................",
"....................",
"....................",
"....................",
"...................."};
