/* XPM */
static char * iconbar_focused_xpm[] = {
"1 23 3 1",
" 	c None",
".	c #1F1F22",
"+	c #424D74",
".",
".",
".",
".",
".",
".",
".",
".",
".",
".",
".",
".",
".",
".",
".",
".",
".",
".",
".",
".",
".",
"+",
"+"};
