/* XPM */
static char * maximize_unfocus_xpm[] = {
"20 20 3 1",
" 	c None",
".	c #1F1F22",
"+	c #707070",
"....................",
"....................",
"....................",
"....................",
"....................",
".....++++++++++.....",
".....+........+.....",
".....+........+.....",
".....+........+.....",
".....+........+.....",
".....+........+.....",
".....+........+.....",
".....+........+.....",
".....+........+.....",
".....++++++++++.....",
"....................",
"....................",
"....................",
"....................",
"...................."};
