/* XPM */
static char * stuck_xpm[] = {
"20 20 5 1",
" 	c None",
".	c #1F1F22",
"+	c #313131",
"@	c #161616",
"#	c #D2D2D2",
"....................",
"....................",
"....................",
"....................",
"....................",
".....++++++++++.....",
".....+@@@@@@@@+.....",
".....+@@@@@@@@+.....",
".....+@@@@@@@#+.....",
".....+@@@@@@#@+.....",
".....+@#@@@#@@+.....",
".....+@@#@#@@@+.....",
".....+@@@#@@@@+.....",
".....+@@@@@@@@+.....",
".....++++++++++.....",
"....................",
"....................",
"....................",
"....................",
"...................."};
